<svg width="30" height="19" viewBox="0 0 30 19" fill="none" xmlns="http://www.w3.org/2000/svg">
<path d="M21.1146 9H2.58594C2.71392 12.1 5.54531 16 9.02135 16H20.203C23.679 16 26.5104 12.1 26.6384 9H21.1146" stroke="#9B9C9D" stroke-width="1.5" stroke-linecap="round" stroke-linejoin="round"/>
<path d="M1.49268 9.00001H2.58597" stroke="#9B9C9D" stroke-width="1.5" stroke-linecap="round" stroke-linejoin="round"/>
<path d="M27.7317 9.00001H28.825" stroke="#9B9C9D" stroke-width="1.5" stroke-linecap="round" stroke-linejoin="round"/>
<path d="M9.14578 16L8.05249 18" stroke="#9B9C9D" stroke-width="1.5" stroke-linecap="round" stroke-linejoin="round"/>
<path d="M21.1719 16L22.2652 18" stroke="#9B9C9D" stroke-width="1.5" stroke-linecap="round" stroke-linejoin="round"/>
<path d="M6.95912 3.84932V2.75342C6.95912 1.78499 5.98007 1 4.77253 1C3.56498 1 2.58594 1.78499 2.58594 2.75342V9" stroke="#9B9C9D" stroke-width="1.5" stroke-linecap="round" stroke-linejoin="round"/>
<rect x="16.7988" y="9" width="4.37318" height="4" stroke="#9B9C9D" stroke-width="1.5" stroke-linecap="round" stroke-linejoin="round"/>
<path d="M17.8921 11H21.172" stroke="#9B9C9D" stroke-width="1.5" stroke-linecap="round" stroke-linejoin="round"/>
<path d="M4.77246 4.00001H8.05234" stroke="#9B9C9D" stroke-width="1.5" stroke-linecap="round" stroke-linejoin="round"/>
</svg>
