<svg width="14" height="18" viewBox="0 0 14 18" fill="none" xmlns="http://www.w3.org/2000/svg">
<path fill-rule="evenodd" clip-rule="evenodd" d="M13.2832 0H0.400095C0.179123 0 0 0.172192 0 0.384615V16.6154C0 16.8278 0.179123 17 0.400095 17H13.2832C13.5041 17 13.6833 16.8278 13.6833 16.6154V0.384615C13.6833 0.172192 13.5041 0 13.2832 0ZM9.80233 16.2308H7.60181V10.7308H9.80233V16.2308ZM10.6025 16.2308H12.8831V0.769231H0.800191V16.2308H6.80162V10.3462C6.80162 10.1337 6.98074 9.96154 7.20171 9.96154H10.2024C10.4234 9.96154 10.6025 10.1337 10.6025 10.3462V16.2308Z" fill="#9B9C9D"/>
<path d="M7.60181 16.2308H7.45181V16.3808H7.60181V16.2308ZM9.80233 16.2308V16.3808H9.95233V16.2308H9.80233ZM7.60181 10.7308V10.5808H7.45181V10.7308H7.60181ZM9.80233 10.7308H9.95233V10.5808H9.80233V10.7308ZM12.8831 16.2308V16.3808H13.0331V16.2308H12.8831ZM10.6025 16.2308H10.4525V16.3808H10.6025V16.2308ZM12.8831 0.769231H13.0331V0.619231H12.8831V0.769231ZM0.800191 0.769231V0.619231H0.65019V0.769231H0.800191ZM0.800191 16.2308H0.65019V16.3808H0.800191V16.2308ZM6.80162 16.2308V16.3808H6.95162V16.2308H6.80162ZM0.400095 0.15H13.2832V-0.15H0.400095V0.15ZM0.15 0.384615C0.15 0.260559 0.256332 0.15 0.400095 0.15V-0.15C0.101913 -0.15 -0.15 0.0838261 -0.15 0.384615H0.15ZM0.15 16.6154V0.384615H-0.15V16.6154H0.15ZM0.400095 16.85C0.256332 16.85 0.15 16.7394 0.15 16.6154H-0.15C-0.15 16.9162 0.101914 17.15 0.400095 17.15V16.85ZM13.2832 16.85H0.400095V17.15H13.2832V16.85ZM13.5333 16.6154C13.5333 16.7394 13.4269 16.85 13.2832 16.85V17.15C13.5813 17.15 13.8333 16.9162 13.8333 16.6154H13.5333ZM13.5333 0.384615V16.6154H13.8333V0.384615H13.5333ZM13.2832 0.15C13.4269 0.15 13.5333 0.260558 13.5333 0.384615H13.8333C13.8333 0.0838263 13.5813 -0.15 13.2832 -0.15V0.15ZM7.60181 16.3808H9.80233V16.0808H7.60181V16.3808ZM7.45181 10.7308V16.2308H7.75181V10.7308H7.45181ZM9.80233 10.5808H7.60181V10.8808H9.80233V10.5808ZM9.95233 16.2308V10.7308H9.65233V16.2308H9.95233ZM12.8831 16.0808H10.6025V16.3808H12.8831V16.0808ZM12.7331 0.769231V16.2308H13.0331V0.769231H12.7331ZM0.800191 0.919231H12.8831V0.619231H0.800191V0.919231ZM0.950191 16.2308V0.769231H0.65019V16.2308H0.950191ZM6.80162 16.0808H0.800191V16.3808H6.80162V16.0808ZM6.65162 10.3462V16.2308H6.95162V10.3462H6.65162ZM7.20171 9.81154C6.90353 9.81154 6.65162 10.0454 6.65162 10.3462H6.95162C6.95162 10.2221 7.05795 10.1115 7.20171 10.1115V9.81154ZM10.2024 9.81154H7.20171V10.1115H10.2024V9.81154ZM10.7525 10.3462C10.7525 10.0454 10.5006 9.81154 10.2024 9.81154V10.1115C10.3462 10.1115 10.4525 10.2221 10.4525 10.3462H10.7525ZM10.7525 16.2308V10.3462H10.4525V16.2308H10.7525Z" fill="#979797"/>
<path fill-rule="evenodd" clip-rule="evenodd" d="M4.12103 4.92307H2.12055C1.89958 4.92307 1.72046 4.75088 1.72046 4.53845V2.03845C1.72046 1.82603 1.89958 1.65384 2.12055 1.65384H4.12103C4.342 1.65384 4.52113 1.82603 4.52113 2.03845V4.53845C4.52113 4.75088 4.342 4.92307 4.12103 4.92307ZM3.72094 2.42307H2.52065V4.15384H3.72094V2.42307Z" fill="#9B9C9D"/>
<path d="M2.52065 2.42307V2.27307H2.37065V2.42307H2.52065ZM3.72094 2.42307H3.87094V2.27307H3.72094V2.42307ZM2.52065 4.15384H2.37065V4.30384H2.52065V4.15384ZM3.72094 4.15384V4.30384H3.87094V4.15384H3.72094ZM2.12055 5.07307H4.12103V4.77307H2.12055V5.07307ZM1.57046 4.53845C1.57046 4.83924 1.82237 5.07307 2.12055 5.07307V4.77307C1.97679 4.77307 1.87046 4.66251 1.87046 4.53845H1.57046ZM1.57046 2.03845V4.53845H1.87046V2.03845H1.57046ZM2.12055 1.50384C1.82237 1.50384 1.57046 1.73767 1.57046 2.03845H1.87046C1.87046 1.9144 1.97679 1.80384 2.12055 1.80384V1.50384ZM4.12103 1.50384H2.12055V1.80384H4.12103V1.50384ZM4.67113 2.03845C4.67113 1.73767 4.41921 1.50384 4.12103 1.50384V1.80384C4.26479 1.80384 4.37113 1.9144 4.37113 2.03845H4.67113ZM4.67113 4.53845V2.03845H4.37113V4.53845H4.67113ZM4.12103 5.07307C4.41921 5.07307 4.67113 4.83924 4.67113 4.53845H4.37113C4.37113 4.66251 4.26479 4.77307 4.12103 4.77307V5.07307ZM2.52065 2.57307H3.72094V2.27307H2.52065V2.57307ZM2.67065 4.15384V2.42307H2.37065V4.15384H2.67065ZM3.72094 4.00384H2.52065V4.30384H3.72094V4.00384ZM3.57094 2.42307V4.15384H3.87094V2.42307H3.57094Z" fill="#979797"/>
<path fill-rule="evenodd" clip-rule="evenodd" d="M7.84198 4.92307H5.8415C5.62053 4.92307 5.44141 4.75088 5.44141 4.53845V2.03845C5.44141 1.82603 5.62053 1.65384 5.8415 1.65384H7.84198C8.06295 1.65384 8.24207 1.82603 8.24207 2.03845V4.53845C8.24207 4.75088 8.06295 4.92307 7.84198 4.92307ZM7.44188 2.42307H6.2416V4.15384H7.44188V2.42307Z" fill="#9B9C9D"/>
<path d="M6.2416 2.42307V2.27307H6.0916V2.42307H6.2416ZM7.44188 2.42307H7.59188V2.27307H7.44188V2.42307ZM6.2416 4.15384H6.0916V4.30384H6.2416V4.15384ZM7.44188 4.15384V4.30384H7.59188V4.15384H7.44188ZM5.8415 5.07307H7.84198V4.77307H5.8415V5.07307ZM5.29141 4.53845C5.29141 4.83924 5.54332 5.07307 5.8415 5.07307V4.77307C5.69774 4.77307 5.59141 4.66251 5.59141 4.53845H5.29141ZM5.29141 2.03845V4.53845H5.59141V2.03845H5.29141ZM5.8415 1.50384C5.54332 1.50384 5.29141 1.73767 5.29141 2.03845H5.59141C5.59141 1.9144 5.69774 1.80384 5.8415 1.80384V1.50384ZM7.84198 1.50384H5.8415V1.80384H7.84198V1.50384ZM8.39207 2.03845C8.39207 1.73767 8.14016 1.50384 7.84198 1.50384V1.80384C7.98574 1.80384 8.09207 1.9144 8.09207 2.03845H8.39207ZM8.39207 4.53845V2.03845H8.09207V4.53845H8.39207ZM7.84198 5.07307C8.14016 5.07307 8.39207 4.83924 8.39207 4.53845H8.09207C8.09207 4.66251 7.98574 4.77307 7.84198 4.77307V5.07307ZM6.2416 2.57307H7.44188V2.27307H6.2416V2.57307ZM6.3916 4.15384V2.42307H6.0916V4.15384H6.3916ZM7.44188 4.00384H6.2416V4.30384H7.44188V4.00384ZM7.29188 2.42307V4.15384H7.59188V2.42307H7.29188Z" fill="#979797"/>
<path fill-rule="evenodd" clip-rule="evenodd" d="M11.5627 4.92307H9.5622C9.34123 4.92307 9.16211 4.75088 9.16211 4.53845V2.03845C9.16211 1.82603 9.34123 1.65384 9.5622 1.65384H11.5627C11.7837 1.65384 11.9628 1.82603 11.9628 2.03845V4.53845C11.9628 4.75088 11.7837 4.92307 11.5627 4.92307ZM11.1626 2.42307H9.9623V4.15384H11.1626V2.42307Z" fill="#9B9C9D"/>
<path d="M9.9623 2.42307V2.27307H9.8123V2.42307H9.9623ZM11.1626 2.42307H11.3126V2.27307H11.1626V2.42307ZM9.9623 4.15384H9.8123V4.30384H9.9623V4.15384ZM11.1626 4.15384V4.30384H11.3126V4.15384H11.1626ZM9.5622 5.07307H11.5627V4.77307H9.5622V5.07307ZM9.01211 4.53845C9.01211 4.83924 9.26402 5.07307 9.5622 5.07307V4.77307C9.41844 4.77307 9.31211 4.66251 9.31211 4.53845H9.01211ZM9.01211 2.03845V4.53845H9.31211V2.03845H9.01211ZM9.5622 1.50384C9.26402 1.50384 9.01211 1.73767 9.01211 2.03845H9.31211C9.31211 1.9144 9.41844 1.80384 9.5622 1.80384V1.50384ZM11.5627 1.50384H9.5622V1.80384H11.5627V1.50384ZM12.1128 2.03845C12.1128 1.73767 11.8609 1.50384 11.5627 1.50384V1.80384C11.7064 1.80384 11.8128 1.9144 11.8128 2.03845H12.1128ZM12.1128 4.53845V2.03845H11.8128V4.53845H12.1128ZM11.5627 5.07307C11.8609 5.07307 12.1128 4.83924 12.1128 4.53845H11.8128C11.8128 4.66251 11.7064 4.77307 11.5627 4.77307V5.07307ZM9.9623 2.57307H11.1626V2.27307H9.9623V2.57307ZM10.1123 4.15384V2.42307H9.8123V4.15384H10.1123ZM11.1626 4.00384H9.9623V4.30384H11.1626V4.00384ZM11.0126 2.42307V4.15384H11.3126V2.42307H11.0126Z" fill="#979797"/>
<path fill-rule="evenodd" clip-rule="evenodd" d="M4.12103 9.07692H2.12055C1.89958 9.07692 1.72046 8.90473 1.72046 8.69231V6.19231C1.72046 5.97989 1.89958 5.80769 2.12055 5.80769H4.12103C4.342 5.80769 4.52113 5.97989 4.52113 6.19231V8.69231C4.52113 8.90473 4.342 9.07692 4.12103 9.07692ZM3.72094 6.57692H2.52065V8.30769H3.72094V6.57692Z" fill="#9B9C9D"/>
<path d="M2.52065 6.57692V6.42692H2.37065V6.57692H2.52065ZM3.72094 6.57692H3.87094V6.42692H3.72094V6.57692ZM2.52065 8.30769H2.37065V8.45769H2.52065V8.30769ZM3.72094 8.30769V8.45769H3.87094V8.30769H3.72094ZM2.12055 9.22692H4.12103V8.92692H2.12055V9.22692ZM1.57046 8.69231C1.57046 8.9931 1.82237 9.22692 2.12055 9.22692V8.92692C1.97679 8.92692 1.87046 8.81637 1.87046 8.69231H1.57046ZM1.57046 6.19231V8.69231H1.87046V6.19231H1.57046ZM2.12055 5.65769C1.82237 5.65769 1.57046 5.89152 1.57046 6.19231H1.87046C1.87046 6.06825 1.97679 5.95769 2.12055 5.95769V5.65769ZM4.12103 5.65769H2.12055V5.95769H4.12103V5.65769ZM4.67113 6.19231C4.67113 5.89152 4.41921 5.65769 4.12103 5.65769V5.95769C4.26479 5.95769 4.37113 6.06825 4.37113 6.19231H4.67113ZM4.67113 8.69231V6.19231H4.37113V8.69231H4.67113ZM4.12103 9.22692C4.41921 9.22692 4.67113 8.9931 4.67113 8.69231H4.37113C4.37113 8.81637 4.26479 8.92692 4.12103 8.92692V9.22692ZM2.52065 6.72692H3.72094V6.42692H2.52065V6.72692ZM2.67065 8.30769V6.57692H2.37065V8.30769H2.67065ZM3.72094 8.15769H2.52065V8.45769H3.72094V8.15769ZM3.57094 6.57692V8.30769H3.87094V6.57692H3.57094Z" fill="#979797"/>
<path fill-rule="evenodd" clip-rule="evenodd" d="M7.84198 9.07692H5.8415C5.62053 9.07692 5.44141 8.90473 5.44141 8.69231V6.19231C5.44141 5.97989 5.62053 5.80769 5.8415 5.80769H7.84198C8.06295 5.80769 8.24207 5.97989 8.24207 6.19231V8.69231C8.24207 8.90473 8.06295 9.07692 7.84198 9.07692ZM7.44188 6.57692H6.2416V8.30769H7.44188V6.57692Z" fill="#9B9C9D"/>
<path d="M6.2416 6.57692V6.42692H6.0916V6.57692H6.2416ZM7.44188 6.57692H7.59188V6.42692H7.44188V6.57692ZM6.2416 8.30769H6.0916V8.45769H6.2416V8.30769ZM7.44188 8.30769V8.45769H7.59188V8.30769H7.44188ZM5.8415 9.22692H7.84198V8.92692H5.8415V9.22692ZM5.29141 8.69231C5.29141 8.9931 5.54332 9.22692 5.8415 9.22692V8.92692C5.69774 8.92692 5.59141 8.81637 5.59141 8.69231H5.29141ZM5.29141 6.19231V8.69231H5.59141V6.19231H5.29141ZM5.8415 5.65769C5.54332 5.65769 5.29141 5.89152 5.29141 6.19231H5.59141C5.59141 6.06825 5.69774 5.95769 5.8415 5.95769V5.65769ZM7.84198 5.65769H5.8415V5.95769H7.84198V5.65769ZM8.39207 6.19231C8.39207 5.89152 8.14016 5.65769 7.84198 5.65769V5.95769C7.98574 5.95769 8.09207 6.06825 8.09207 6.19231H8.39207ZM8.39207 8.69231V6.19231H8.09207V8.69231H8.39207ZM7.84198 9.22692C8.14016 9.22692 8.39207 8.9931 8.39207 8.69231H8.09207C8.09207 8.81637 7.98574 8.92692 7.84198 8.92692V9.22692ZM6.2416 6.72692H7.44188V6.42692H6.2416V6.72692ZM6.3916 8.30769V6.57692H6.0916V8.30769H6.3916ZM7.44188 8.15769H6.2416V8.45769H7.44188V8.15769ZM7.29188 6.57692V8.30769H7.59188V6.57692H7.29188Z" fill="#979797"/>
<path fill-rule="evenodd" clip-rule="evenodd" d="M11.5627 9.07692H9.5622C9.34123 9.07692 9.16211 8.90473 9.16211 8.69231V6.19231C9.16211 5.97989 9.34123 5.80769 9.5622 5.80769H11.5627C11.7837 5.80769 11.9628 5.97989 11.9628 6.19231V8.69231C11.9628 8.90473 11.7837 9.07692 11.5627 9.07692ZM11.1626 6.57692H9.9623V8.30769H11.1626V6.57692Z" fill="#9B9C9D"/>
<path d="M9.9623 6.57692V6.42692H9.8123V6.57692H9.9623ZM11.1626 6.57692H11.3126V6.42692H11.1626V6.57692ZM9.9623 8.30769H9.8123V8.45769H9.9623V8.30769ZM11.1626 8.30769V8.45769H11.3126V8.30769H11.1626ZM9.5622 9.22692H11.5627V8.92692H9.5622V9.22692ZM9.01211 8.69231C9.01211 8.9931 9.26402 9.22692 9.5622 9.22692V8.92692C9.41844 8.92692 9.31211 8.81637 9.31211 8.69231H9.01211ZM9.01211 6.19231V8.69231H9.31211V6.19231H9.01211ZM9.5622 5.65769C9.26402 5.65769 9.01211 5.89152 9.01211 6.19231H9.31211C9.31211 6.06825 9.41844 5.95769 9.5622 5.95769V5.65769ZM11.5627 5.65769H9.5622V5.95769H11.5627V5.65769ZM12.1128 6.19231C12.1128 5.89152 11.8609 5.65769 11.5627 5.65769V5.95769C11.7064 5.95769 11.8128 6.06825 11.8128 6.19231H12.1128ZM12.1128 8.69231V6.19231H11.8128V8.69231H12.1128ZM11.5627 9.22692C11.8609 9.22692 12.1128 8.9931 12.1128 8.69231H11.8128C11.8128 8.81637 11.7064 8.92692 11.5627 8.92692V9.22692ZM9.9623 6.72692H11.1626V6.42692H9.9623V6.72692ZM10.1123 8.30769V6.57692H9.8123V8.30769H10.1123ZM11.1626 8.15769H9.9623V8.45769H11.1626V8.15769ZM11.0126 6.57692V8.30769H11.3126V6.57692H11.0126Z" fill="#979797"/>
<path fill-rule="evenodd" clip-rule="evenodd" d="M4.12103 13.2308H2.12055C1.89958 13.2308 1.72046 13.0586 1.72046 12.8461V10.3461C1.72046 10.1337 1.89958 9.96153 2.12055 9.96153H4.12103C4.342 9.96153 4.52113 10.1337 4.52113 10.3461V12.8461C4.52113 13.0586 4.342 13.2308 4.12103 13.2308ZM3.72094 10.7308H2.52065V12.4615H3.72094V10.7308Z" fill="#9B9C9D"/>
<path d="M2.52065 10.7308V10.5808H2.37065V10.7308H2.52065ZM3.72094 10.7308H3.87094V10.5808H3.72094V10.7308ZM2.52065 12.4615H2.37065V12.6115H2.52065V12.4615ZM3.72094 12.4615V12.6115H3.87094V12.4615H3.72094ZM2.12055 13.3808H4.12103V13.0808H2.12055V13.3808ZM1.57046 12.8461C1.57046 13.1469 1.82237 13.3808 2.12055 13.3808V13.0808C1.97679 13.0808 1.87046 12.9702 1.87046 12.8461H1.57046ZM1.57046 10.3461V12.8461H1.87046V10.3461H1.57046ZM2.12055 9.81153C1.82237 9.81153 1.57046 10.0454 1.57046 10.3461H1.87046C1.87046 10.2221 1.97679 10.1115 2.12055 10.1115V9.81153ZM4.12103 9.81153H2.12055V10.1115H4.12103V9.81153ZM4.67113 10.3461C4.67113 10.0454 4.41921 9.81153 4.12103 9.81153V10.1115C4.26479 10.1115 4.37113 10.2221 4.37113 10.3461H4.67113ZM4.67113 12.8461V10.3461H4.37113V12.8461H4.67113ZM4.12103 13.3808C4.41921 13.3808 4.67113 13.1469 4.67113 12.8461H4.37113C4.37113 12.9702 4.26479 13.0808 4.12103 13.0808V13.3808ZM2.52065 10.8808H3.72094V10.5808H2.52065V10.8808ZM2.67065 12.4615V10.7308H2.37065V12.4615H2.67065ZM3.72094 12.3115H2.52065V12.6115H3.72094V12.3115ZM3.57094 10.7308V12.4615H3.87094V10.7308H3.57094Z" fill="#979797"/>
</svg>
