<svg width="22" height="18" viewBox="0 0 22 18" fill="none" xmlns="http://www.w3.org/2000/svg">
<path fill-rule="evenodd" clip-rule="evenodd" d="M1.8599 0H14.0846C14.6794 0 15.1633 0.439998 15.1633 0.980769V16.0192C15.1633 16.56 14.6794 17 14.0846 17H1.8599C1.26516 17 0.78125 16.56 0.78125 16.0192V0.980769C0.78125 0.439998 1.26516 0 1.8599 0ZM14.0846 16.3462C14.2829 16.3462 14.4442 16.1995 14.4442 16.0192V0.980769C14.4442 0.800512 14.2829 0.653846 14.0846 0.653846H8.33181V1.63462C8.33181 1.81516 8.17083 1.96154 7.97226 1.96154C7.7737 1.96154 7.61271 1.81516 7.61271 1.63462V0.653846H1.8599C1.66165 0.653846 1.50035 0.800512 1.50035 0.980769V16.0192C1.50035 16.1995 1.66165 16.3462 1.8599 16.3462H7.61271V2.94231C7.61271 2.76176 7.7737 2.61538 7.97226 2.61538C8.17083 2.61538 8.33181 2.76176 8.33181 2.94231V16.3462H14.0846Z" fill="#888585"/>
<path d="M8.33181 0.653846V0.453846H8.13181V0.653846H8.33181ZM7.61271 0.653846H7.81271V0.453846H7.61271V0.653846ZM7.61271 16.3462V16.5462H7.81271V16.3462H7.61271ZM8.33181 16.3462H8.13181V16.5462H8.33181V16.3462ZM14.0846 -0.2H1.8599V0.2H14.0846V-0.2ZM15.3633 0.980769C15.3633 0.312062 14.7715 -0.2 14.0846 -0.2V0.2C14.5872 0.2 14.9633 0.567934 14.9633 0.980769H15.3633ZM15.3633 16.0192V0.980769H14.9633V16.0192H15.3633ZM14.0846 17.2C14.7715 17.2 15.3633 16.6879 15.3633 16.0192H14.9633C14.9633 16.4321 14.5872 16.8 14.0846 16.8V17.2ZM1.8599 17.2H14.0846V16.8H1.8599V17.2ZM0.58125 16.0192C0.58125 16.6879 1.17303 17.2 1.8599 17.2V16.8C1.35729 16.8 0.98125 16.4321 0.98125 16.0192H0.58125ZM0.58125 0.980769V16.0192H0.98125V0.980769H0.58125ZM1.8599 -0.2C1.17303 -0.2 0.58125 0.312062 0.58125 0.980769H0.98125C0.98125 0.567933 1.35729 0.2 1.8599 0.2V-0.2ZM14.2442 16.0192C14.2442 16.0716 14.1907 16.1462 14.0846 16.1462V16.5462C14.375 16.5462 14.6442 16.3274 14.6442 16.0192H14.2442ZM14.2442 0.980769V16.0192H14.6442V0.980769H14.2442ZM14.0846 0.853846C14.1907 0.853846 14.2442 0.928448 14.2442 0.980769H14.6442C14.6442 0.672576 14.375 0.453846 14.0846 0.453846V0.853846ZM8.33181 0.853846H14.0846V0.453846H8.33181V0.853846ZM8.53181 1.63462V0.653846H8.13181V1.63462H8.53181ZM7.97226 2.16154C8.26295 2.16154 8.53181 1.94309 8.53181 1.63462H8.13181C8.13181 1.68722 8.0787 1.76154 7.97226 1.76154V2.16154ZM7.41271 1.63462C7.41271 1.94309 7.68158 2.16154 7.97226 2.16154V1.76154C7.86583 1.76154 7.81271 1.68722 7.81271 1.63462H7.41271ZM7.41271 0.653846V1.63462H7.81271V0.653846H7.41271ZM1.8599 0.853846H7.61271V0.453846H1.8599V0.853846ZM1.70035 0.980769C1.70035 0.928448 1.75378 0.853846 1.8599 0.853846V0.453846C1.56953 0.453846 1.30035 0.672576 1.30035 0.980769H1.70035ZM1.70035 16.0192V0.980769H1.30035V16.0192H1.70035ZM1.8599 16.1462C1.75378 16.1462 1.70035 16.0716 1.70035 16.0192H1.30035C1.30035 16.3274 1.56953 16.5462 1.8599 16.5462V16.1462ZM7.61271 16.1462H1.8599V16.5462H7.61271V16.1462ZM7.41271 2.94231V16.3462H7.81271V2.94231H7.41271ZM7.97226 2.41538C7.68158 2.41538 7.41271 2.63383 7.41271 2.94231H7.81271C7.81271 2.8897 7.86583 2.81538 7.97226 2.81538V2.41538ZM8.53181 2.94231C8.53181 2.63383 8.26295 2.41538 7.97226 2.41538V2.81538C8.0787 2.81538 8.13181 2.8897 8.13181 2.94231H8.53181ZM8.53181 16.3462V2.94231H8.13181V16.3462H8.53181ZM14.0846 16.1462H8.33181V16.5462H14.0846V16.1462Z" fill="#979797"/>
<path d="M20.3024 12.1107L19.1184 13.227V5.5698C19.1184 5.38257 18.9574 5.23077 18.7589 5.23077C18.5603 5.23077 18.3993 5.38257 18.3993 5.5698V13.227L17.2154 12.1107C17.0749 11.9783 16.8473 11.9783 16.7069 12.1107C16.5665 12.2431 16.5665 12.4577 16.7069 12.5901L18.5046 14.2853C18.507 14.2876 18.5097 14.2896 18.5122 14.2918C18.5183 14.2972 18.5243 14.3026 18.5308 14.3076C18.5356 14.3113 18.5407 14.3146 18.5456 14.318C18.5501 14.3212 18.5544 14.3245 18.5591 14.3274C18.5646 14.3309 18.5702 14.3338 18.5759 14.337C18.5803 14.3395 18.5847 14.3422 18.5892 14.3445C18.5948 14.3473 18.6006 14.3497 18.6063 14.3522C18.6112 14.3544 18.6161 14.3568 18.6212 14.3588C18.6266 14.3609 18.6322 14.3626 18.6377 14.3645C18.6433 14.3664 18.6488 14.3684 18.6545 14.37C18.6599 14.3716 18.6655 14.3727 18.671 14.374C18.6768 14.3754 18.6826 14.377 18.6886 14.3781C18.6949 14.3792 18.7013 14.38 18.7077 14.3808C18.7129 14.3815 18.7181 14.3825 18.7234 14.3829C18.7351 14.384 18.747 14.3846 18.7589 14.3846C18.7707 14.3846 18.7826 14.384 18.7944 14.3829C18.7997 14.3824 18.8048 14.3815 18.8101 14.3808C18.8164 14.38 18.8228 14.3792 18.8292 14.3781C18.8351 14.377 18.8409 14.3754 18.8467 14.374C18.8523 14.3727 18.8578 14.3716 18.8633 14.37C18.8689 14.3683 18.8744 14.3664 18.88 14.3645C18.8855 14.3626 18.8911 14.3609 18.8965 14.3588C18.9016 14.3568 18.9065 14.3544 18.9115 14.3522C18.9172 14.3497 18.9229 14.3473 18.9285 14.3445C18.9331 14.3422 18.9374 14.3395 18.9419 14.337C18.9475 14.3339 18.9532 14.3309 18.9586 14.3274C18.9633 14.3245 18.9677 14.3212 18.9722 14.318C18.9771 14.3146 18.9821 14.3113 18.9869 14.3076C18.9934 14.3026 18.9995 14.2972 19.0055 14.2918C19.008 14.2896 19.0107 14.2876 19.0131 14.2853L20.8109 12.5901C20.9513 12.4577 20.9513 12.2431 20.8109 12.1107C20.6704 11.9783 20.4428 11.9783 20.3024 12.1107Z" fill="#888585" stroke="#979797" stroke-width="0.4"/>
<path d="M16.9611 5.23072C17.0532 5.23072 17.1452 5.19425 17.2154 5.1213L18.7589 3.51739L20.3024 5.12134C20.3726 5.1943 20.4646 5.23077 20.5566 5.23077C20.6487 5.23077 20.7407 5.1943 20.8109 5.12134C20.9513 4.97539 20.9513 4.73889 20.8109 4.59294L19.0131 2.72478C18.8727 2.57892 18.6451 2.57892 18.5046 2.72478L16.7069 4.59294C16.5665 4.73889 16.5665 4.97539 16.7069 5.12134C16.7771 5.19425 16.8691 5.23072 16.9611 5.23072Z" fill="#888585" stroke="#979797" stroke-width="0.4"/>
</svg>
